[
{
    "name" : "abc",
    "age" : "123"
},
{
    "name" : "xyz",
    
},
{
    "name" : "pqr",
    "age" : "123"
},
{
    "name" : "pqr1",
    "age" : "1233"
},
{
    "name" : "pqr1",
    "age" : "1233"
}


]
